EESchema Schematic File Version 4
LIBS:RAMPS-FD-cache
EELAYER 26 0
EELAYER END
$Descr A4 11693 8268
encoding utf-8
Sheet 6 10
Title "RAMPS-FD (RAMPS for Arduino Due)"
Date "2016-07-17"
Rev "v2.2"
Comp ""
Comment1 "Derived from RAMPS 1.4 reprap.org/wiki/RAMPS1.4"
Comment2 "GPL v3"
Comment3 "Bob Cousins 2016"
Comment4 ""
$EndDescr
Text GLabel 9400 2150 2    50   Input ~ 0
AD15
Text GLabel 8100 2150 0    50   Input ~ 0
AD14
Wire Wire Line
	8300 3700 8450 3700
Wire Wire Line
	1950 2350 1950 1550
Wire Wire Line
	8950 6275 9350 6275
Wire Wire Line
	8950 6075 9350 6075
Wire Wire Line
	8950 5875 9350 5875
Wire Wire Line
	8950 5675 9350 5675
Wire Wire Line
	8950 5475 9350 5475
Wire Wire Line
	8950 5275 9350 5275
Wire Wire Line
	8950 5075 9350 5075
Wire Wire Line
	8950 4875 9350 4875
Wire Wire Line
	9100 6425 9100 6375
Wire Wire Line
	9100 6375 9350 6375
Wire Wire Line
	8250 3400 8450 3400
Wire Wire Line
	9400 3300 9250 3300
Wire Wire Line
	8300 3600 8450 3600
Wire Wire Line
	9400 2150 9250 2150
Wire Wire Line
	9400 1950 9250 1950
Wire Wire Line
	8450 2150 8100 2150
Wire Wire Line
	8100 1950 8450 1950
Wire Wire Line
	7550 3600 7550 3500
Wire Wire Line
	8450 3200 7950 3200
Wire Wire Line
	7950 3200 7950 3100
Wire Wire Line
	9250 1850 10000 1850
Wire Wire Line
	2450 1850 1850 1850
Wire Wire Line
	1550 4300 1550 4500
Wire Wire Line
	1550 4500 1700 4500
Connection ~ 4800 2400
Wire Wire Line
	4800 2150 4800 2400
Connection ~ 4450 2500
Wire Wire Line
	4450 2150 4450 2500
Wire Wire Line
	4250 2400 4800 2400
Connection ~ 4800 1650
Wire Wire Line
	4800 1850 4800 1650
Wire Wire Line
	4450 1650 4800 1650
Wire Wire Line
	5250 1650 5250 2200
Wire Wire Line
	5250 2200 5450 2200
Wire Wire Line
	4450 1600 4450 1650
Connection ~ 4450 1650
Wire Wire Line
	5450 2300 5250 2300
Wire Wire Line
	5250 2300 5250 2600
Wire Wire Line
	4250 2500 4450 2500
Wire Wire Line
	1350 4400 1700 4400
Wire Wire Line
	1700 4600 1550 4600
Wire Wire Line
	1550 4600 1550 4700
Wire Wire Line
	1550 5450 1550 5350
Wire Wire Line
	1550 5350 1700 5350
Wire Wire Line
	1350 5150 1700 5150
Wire Wire Line
	1700 5250 1550 5250
Wire Wire Line
	1550 5250 1550 5050
Wire Wire Line
	1550 5700 1550 5900
Wire Wire Line
	1550 5900 1700 5900
Wire Wire Line
	1350 5800 1700 5800
Wire Wire Line
	1700 6000 1550 6000
Wire Wire Line
	1550 6000 1550 6100
Wire Wire Line
	1550 6850 1550 6750
Wire Wire Line
	1550 6750 1700 6750
Wire Wire Line
	1350 6550 1700 6550
Wire Wire Line
	1700 6650 1550 6650
Wire Wire Line
	1550 6650 1550 6450
Wire Wire Line
	1950 1550 2450 1550
Wire Wire Line
	1850 1950 2450 1950
Wire Wire Line
	7950 1750 7950 1850
Wire Wire Line
	7950 1850 8450 1850
Wire Wire Line
	10000 1850 10000 1900
Wire Wire Line
	8100 2050 8450 2050
Wire Wire Line
	8100 2250 8450 2250
Wire Wire Line
	9250 2050 9400 2050
Wire Wire Line
	9250 2250 9400 2250
Wire Wire Line
	9250 3400 9400 3400
Wire Wire Line
	8450 3300 8250 3300
Wire Wire Line
	8950 4775 9350 4775
Wire Wire Line
	9350 4975 8950 4975
Wire Wire Line
	9350 5175 8950 5175
Wire Wire Line
	9350 5375 8950 5375
Wire Wire Line
	9350 5575 8950 5575
Wire Wire Line
	9350 5775 8950 5775
Wire Wire Line
	9350 5975 8950 5975
Wire Wire Line
	9350 6175 8950 6175
Wire Wire Line
	8250 6475 9350 6475
Wire Wire Line
	1850 3200 2450 3200
Wire Wire Line
	2450 2800 1950 2800
Wire Wire Line
	2450 3100 1850 3100
Wire Wire Line
	1950 2800 1950 3600
Wire Wire Line
	4250 4700 4450 4700
Wire Wire Line
	5250 4800 5250 4500
Wire Wire Line
	5250 4500 5450 4500
Connection ~ 4450 3850
Wire Wire Line
	4450 3800 4450 3850
Wire Wire Line
	5450 4400 5250 4400
Wire Wire Line
	5250 4400 5250 3850
Wire Wire Line
	5250 3850 4800 3850
Wire Wire Line
	4800 4050 4800 3850
Connection ~ 4800 3850
Wire Wire Line
	4250 4600 4800 4600
Wire Wire Line
	4450 4350 4450 4700
Connection ~ 4450 4700
Wire Wire Line
	4800 4350 4800 4600
Connection ~ 4800 4600
Text GLabel 8300 3600 0    50   BiDi ~ 0
D50-MISO
Text GLabel 8300 3700 0    50   BiDi ~ 0
D52-SCK
$Comp
L RAMPS-FD-rescue:CONN_4 P2
U 1 1 523B6020
P 5800 4550
F 0 "P2" V 5750 4550 50  0000 C CNN
F 1 "I2C-1" V 5850 4550 50  0000 C CNN
F 2 "w_pin_strip:pin_strip_4" H 5800 4550 60  0001 C CNN
F 3 "https://media.digikey.com/PDF/Data%20Sheets/Sullins%20PDFs/xRxCzzzSxxN-RC_ST_11635-B.pdf" H 5800 4550 60  0001 C CNN
F 4 "CONN HEADER .100\" SNGL STR 4POS" H 0   0   50  0001 C CNN "Description"
F 5 "Sullins Connector Solutions" H 0   0   50  0001 C CNN "Manufacturer"
F 6 "PRPC004SAAN-RC" H 0   0   50  0001 C CNN "Mfr PN"
F 7 "1" H 0   0   50  0001 C CNN "Qty Per Unit"
F 8 "y" H 0   0   50  0001 C CNN "Subs OK?"
F 9 "S1011EC-04-ND" H 0   0   50  0001 C CNN "Vendor 1 PN"
F 10 "https://www.digikey.com/products/en?keywords=S1011EC-04-ND" H 0   0   50  0001 C CNN "Vendor 1 URL"
	1    5800 4550
	1    0    0    -1  
$EndComp
$Comp
L Device:R R2
U 1 1 523B601F
P 4800 4200
AR Path="/523B601F" Ref="R2"  Part="1" 
AR Path="/5176EFAC/523B601F" Ref="R2"  Part="1" 
F 0 "R2" V 4880 4200 50  0000 C CNN
F 1 "NF" V 4800 4200 50  0000 C CNN
F 2 "Resistors_SMD:R_0603" H 4800 4200 60  0001 C CNN
F 3 "" H 4800 4200 60  0001 C CNN
	1    4800 4200
	1    0    0    -1  
$EndComp
$Comp
L Device:R R1
U 1 1 523B601E
P 4450 4200
AR Path="/523B601E" Ref="R1"  Part="1" 
AR Path="/5176EFAC/523B601E" Ref="R1"  Part="1" 
F 0 "R1" V 4530 4200 50  0000 C CNN
F 1 "NF" V 4450 4200 50  0000 C CNN
F 2 "Resistors_SMD:R_0603" H 4450 4200 60  0001 C CNN
F 3 "" H 4450 4200 60  0001 C CNN
	1    4450 4200
	1    0    0    -1  
$EndComp
$Comp
L power:GND #PWR071
U 1 1 523B601D
P 5250 4800
AR Path="/523B601D" Ref="#PWR071"  Part="1" 
AR Path="/5176EFAC/523B601D" Ref="#PWR072"  Part="1" 
F 0 "#PWR072" H 5250 4800 30  0001 C CNN
F 1 "GND" H 5250 4730 30  0001 C CNN
F 2 "" H 5250 4800 60  0001 C CNN
F 3 "" H 5250 4800 60  0001 C CNN
	1    5250 4800
	1    0    0    -1  
$EndComp
Text GLabel 4250 4600 0    60   Input ~ 0
SDA1
Text GLabel 4250 4700 0    60   Input ~ 0
SCL1
$Comp
L RMC:+V_LOGIC #PWR073
U 1 1 523B601C
P 4450 3800
F 0 "#PWR073" H 4450 3770 30  0001 C CNN
F 1 "+V_LOGIC" H 4450 3900 30  0000 C CNN
F 2 "" H 4450 3800 60  0001 C CNN
F 3 "" H 4450 3800 60  0001 C CNN
	1    4450 3800
	1    0    0    -1  
$EndComp
Text GLabel 1850 3100 0    50   Output ~ 0
UART1_RX_LV
Text GLabel 1850 3200 0    50   Input ~ 0
UART1_TX_LV
$Comp
L power:GND #PWR073
U 1 1 523B5AB9
P 1950 3600
AR Path="/523B5AB9" Ref="#PWR073"  Part="1" 
AR Path="/5176EFAC/523B5AB9" Ref="#PWR074"  Part="1" 
F 0 "#PWR074" H 1950 3600 30  0001 C CNN
F 1 "GND" H 1950 3530 30  0001 C CNN
F 2 "" H 1950 3600 60  0001 C CNN
F 3 "" H 1950 3600 60  0001 C CNN
	1    1950 3600
	1    0    0    -1  
$EndComp
$Comp
L RAMPS-FD-rescue:CONN_6 P1
U 1 1 523B5AB8
P 2800 3050
F 0 "P1" V 2750 3050 60  0000 C CNN
F 1 "SERIAL1" V 2850 3050 60  0000 C CNN
F 2 "w_pin_strip:pin_strip_6" H 2800 3050 60  0001 C CNN
F 3 "https://media.digikey.com/PDF/Data%20Sheets/Sullins%20PDFs/xRxCzzzSxxN-RC_ST_11635-B.pdf" H 2800 3050 60  0001 C CNN
F 4 "CONN HEADER .100\" SNGL STR 6POS" H 0   0   50  0001 C CNN "Description"
F 5 "Sullins Connector Solutions" H 0   0   50  0001 C CNN "Manufacturer"
F 6 "PRPC006SAAN-RC" H 0   0   50  0001 C CNN "Mfr PN"
F 7 "1" H 0   0   50  0001 C CNN "Qty Per Unit"
F 8 "y" H 0   0   50  0001 C CNN "Subs OK?"
F 9 "S1011EC-06-ND" H 0   0   50  0001 C CNN "Vendor 1 PN"
F 10 "https://www.digikey.com/products/en?keywords=PRPC006SAAN-RC" H 0   0   50  0001 C CNN "Vendor 1 URL"
	1    2800 3050
	1    0    0    -1  
$EndComp
NoConn ~ 2450 2900
NoConn ~ 2450 3000
NoConn ~ 2450 3300
Text Notes 2100 1300 0    60   ~ 0
Serial
NoConn ~ 2450 2050
NoConn ~ 2450 1750
NoConn ~ 2450 1650
$Comp
L RAMPS-FD-rescue:CONN_6 P216
U 1 1 51F17B03
P 2800 1800
F 0 "P216" V 2750 1800 60  0000 C CNN
F 1 "SERIAL0" V 2850 1800 60  0000 C CNN
F 2 "w_pin_strip:pin_strip_6" H 2800 1800 60  0001 C CNN
F 3 "https://media.digikey.com/PDF/Data%20Sheets/Sullins%20PDFs/xRxCzzzSxxN-RC_ST_11635-B.pdf" H 2800 1800 60  0001 C CNN
F 4 "CONN HEADER .100\" SNGL STR 6POS" H 0   0   50  0001 C CNN "Description"
F 5 "Sullins Connector Solutions" H 0   0   50  0001 C CNN "Manufacturer"
F 6 "PRPC006SAAN-RC" H 0   0   50  0001 C CNN "Mfr PN"
F 7 "1" H 0   0   50  0001 C CNN "Qty Per Unit"
F 8 "y" H 0   0   50  0001 C CNN "Subs OK?"
F 9 "S1011EC-06-ND" H 0   0   50  0001 C CNN "Vendor 1 PN"
F 10 "https://www.digikey.com/products/en?keywords=PRPC006SAAN-RC" H 0   0   50  0001 C CNN "Vendor 1 URL"
	1    2800 1800
	1    0    0    -1  
$EndComp
Text Notes 550  1950 0    50   ~ 0
UART-TTL
Text GLabel 8100 2050 0    50   Input ~ 0
A6
Text GLabel 9400 2050 2    50   Input ~ 0
A7
Text GLabel 9400 1950 2    50   Input ~ 0
A5
Text GLabel 8100 1950 0    50   Input ~ 0
A4
Text GLabel 9450 3600 2    50   BiDi ~ 0
D51-MOSI
$Comp
L RMC:+V_LOGIC #PWR075
U 1 1 517867DD
P 7950 1750
F 0 "#PWR075" H 7950 1720 30  0001 C CNN
F 1 "+V_LOGIC" H 7950 1850 30  0000 C CNN
F 2 "" H 7950 1750 60  0001 C CNN
F 3 "" H 7950 1750 60  0001 C CNN
	1    7950 1750
	1    0    0    -1  
$EndComp
$Comp
L RMC:+V_LOGIC #PWR076
U 1 1 517867D0
P 8250 6475
F 0 "#PWR076" H 8250 6445 30  0001 C CNN
F 1 "+V_LOGIC" H 8250 6575 30  0000 C CNN
F 2 "" H 8250 6475 60  0001 C CNN
F 3 "" H 8250 6475 60  0001 C CNN
	1    8250 6475
	1    0    0    -1  
$EndComp
$Comp
L RMC:+V_LOGIC #PWR077
U 1 1 517867C6
P 4450 1600
F 0 "#PWR077" H 4450 1570 30  0001 C CNN
F 1 "+V_LOGIC" H 4450 1700 30  0000 C CNN
F 2 "" H 4450 1600 60  0001 C CNN
F 3 "" H 4450 1600 60  0001 C CNN
	1    4450 1600
	1    0    0    -1  
$EndComp
$Comp
L power:GND #PWR077
U 1 1 51084B2C
P 9100 6425
AR Path="/51084B2C" Ref="#PWR077"  Part="1" 
AR Path="/5176EFAC/51084B2C" Ref="#PWR078"  Part="1" 
F 0 "#PWR078" H 9100 6425 30  0001 C CNN
F 1 "GND" H 9100 6355 30  0001 C CNN
F 2 "" H 9100 6425 60  0001 C CNN
F 3 "" H 9100 6425 60  0001 C CNN
	1    9100 6425
	1    0    0    -1  
$EndComp
Text GLabel 8950 6175 0    50   BiDi ~ 0
D47
Text GLabel 8950 6075 0    50   BiDi ~ 0
D45
Text GLabel 8950 5975 0    50   BiDi ~ 0
D43
Text GLabel 8950 5875 0    50   BiDi ~ 0
D41
Text GLabel 8950 5775 0    50   BiDi ~ 0
D39
Text GLabel 8950 5675 0    50   BiDi ~ 0
D37
Text GLabel 8950 5575 0    50   BiDi ~ 0
D35
Text GLabel 8950 5475 0    50   BiDi ~ 0
D33
Text GLabel 8950 5375 0    50   BiDi ~ 0
D31
Text GLabel 8950 5275 0    50   BiDi ~ 0
D29
Text GLabel 8950 5175 0    50   BiDi ~ 0
D27
Text GLabel 8950 5075 0    50   BiDi ~ 0
D25
Text GLabel 8950 4975 0    50   BiDi ~ 0
D23
$Comp
L RMC:CONN_18 P213
U 1 1 51084A74
P 9700 5575
F 0 "P213" V 9650 5575 60  0000 C CNN
F 1 "AUX-4" V 9750 5575 60  0000 C CNN
F 2 "w_pin_strip:pin_strip_18" H 9700 5575 60  0001 C CNN
F 3 "https://media.digikey.com/PDF/Data%20Sheets/Sullins%20PDFs/xRxCzzzSxxN-RC_ST_11635-B.pdf" H 9700 5575 60  0001 C CNN
F 4 "CONN HEADER .100\" SNGL STR 18POS" H 0   0   50  0001 C CNN "Description"
F 5 "Sullins Connector Solutions" H 0   0   50  0001 C CNN "Manufacturer"
F 6 "PRPC018SAAN-RC" H 0   0   50  0001 C CNN "Mfr PN"
F 7 "1" H 0   0   50  0001 C CNN "Qty Per Unit"
F 8 "y" H 0   0   50  0001 C CNN "Subs OK?"
F 9 "S1011EC-18-ND" H 0   0   50  0001 C CNN "Vendor 1 PN"
F 10 "https://www.digikey.com/products/en?keywords=PRPC018SAAN-RC" H 0   0   50  0001 C CNN "Vendor 1 URL"
	1    9700 5575
	1    0    0    1   
$EndComp
Text GLabel 9400 3200 2    50   BiDi ~ 0
D49
Text GLabel 9400 3300 2    50   Input ~ 0
MOSI
Text GLabel 8250 3400 0    50   Input ~ 0
SCK
Text GLabel 8250 3300 0    50   Output ~ 0
MISO
Text Notes 2200 7450 2    50   ~ 0
Need buffered outputs?
Text Notes 4000 3200 0    50   ~ 0
Must not have external pullups to 5V if IOREF = 3.3V
$Comp
L power:GND #PWR078
U 1 1 5104884C
P 7550 3600
AR Path="/5104884C" Ref="#PWR078"  Part="1" 
AR Path="/5176EFAC/5104884C" Ref="#PWR079"  Part="1" 
F 0 "#PWR079" H 7550 3600 30  0001 C CNN
F 1 "GND" H 7550 3530 30  0001 C CNN
F 2 "" H 7550 3600 60  0001 C CNN
F 3 "" H 7550 3600 60  0001 C CNN
	1    7550 3600
	1    0    0    -1  
$EndComp
$Comp
L power:GND #PWR079
U 1 1 51048839
P 10000 1900
AR Path="/51048839" Ref="#PWR079"  Part="1" 
AR Path="/5176EFAC/51048839" Ref="#PWR080"  Part="1" 
F 0 "#PWR080" H 10000 1900 30  0001 C CNN
F 1 "GND" H 10000 1830 30  0001 C CNN
F 2 "" H 10000 1900 60  0001 C CNN
F 3 "" H 10000 1900 60  0001 C CNN
	1    10000 1900
	1    0    0    -1  
$EndComp
$Comp
L power:GND #PWR080
U 1 1 5104861F
P 1950 2350
AR Path="/5104861F" Ref="#PWR080"  Part="1" 
AR Path="/5176EFAC/5104861F" Ref="#PWR081"  Part="1" 
F 0 "#PWR081" H 1950 2350 30  0001 C CNN
F 1 "GND" H 1950 2280 30  0001 C CNN
F 2 "" H 1950 2350 60  0001 C CNN
F 3 "" H 1950 2350 60  0001 C CNN
	1    1950 2350
	1    0    0    -1  
$EndComp
Text GLabel 1850 1950 0    50   Input ~ 0
UART0_TX_LV
Text GLabel 1850 1850 0    50   Output ~ 0
UART0_RX_LV
Text Notes 4200 3050 0    60   ~ 0
1k5 Pull ups on Due
Text Notes 8700 4550 0    60   ~ 0
Aux4 - general IO
Text Notes 8600 2850 0    60   ~ 0
Aux3 - SPI
Text Notes 8750 1500 0    60   ~ 0
Aux2
Text Notes 8400 1200 0    60   ~ 0
Aux connectors
Text Notes 1350 7300 0    60   ~ 0
Servos
$Comp
L RAMPS-FD-rescue:CONN_5X2 P214
U 1 1 510481EC
P 8850 2050
F 0 "P214" H 8850 2350 60  0000 C CNN
F 1 "AUX-2" V 8850 2050 50  0000 C CNN
F 2 "rmc:PIN_ARRAY_5x2_RMC" H 8850 2050 60  0001 C CNN
F 3 "https://s3.amazonaws.com/catalogspreads-pdf/PAGE110-111%20.100%20MALE%20HDR%20ST.pdf" H 8850 2050 60  0001 C CNN
F 4 "CONN HEADER .100\" DUAL STR 10POS" H 0   0   50  0001 C CNN "Description"
F 5 "Sullins Connector Solutions" H 0   0   50  0001 C CNN "Manufacturer"
F 6 "PRPC005DAAN-RC" H 0   0   50  0001 C CNN "Mfr PN"
F 7 "1" H 0   0   50  0001 C CNN "Qty Per Unit"
F 8 "y" H 0   0   50  0001 C CNN "Subs OK?"
F 9 "PRPC005DAAN-RC" H 0   0   50  0001 C CNN "Vendor 1 PN"
F 10 "https://www.digikey.com/products/en?keywords=PRPC005DAAN-RC" H 0   0   50  0001 C CNN "Vendor 1 URL"
	1    8850 2050
	1    0    0    -1  
$EndComp
$Comp
L RAMPS-FD-rescue:CONN_3 K204
U 1 1 51047C7F
P 2050 6650
F 0 "K204" V 2000 6650 50  0000 C CNN
F 1 "S4" V 2100 6650 40  0000 C CNN
F 2 "pin_array:PIN_ARRAY_3X1" H 2050 6650 60  0001 C CNN
F 3 "https://media.digikey.com/PDF/Data%20Sheets/Sullins%20PDFs/xRxCzzzSxxN-RC_ST_11635-B.pdf" H 2050 6650 60  0001 C CNN
F 4 "CONN HEADER .100\" SNGL STR 3POS" H 0   0   50  0001 C CNN "Description"
F 5 "Sullins Connector Solutions" H 0   0   50  0001 C CNN "Manufacturer"
F 6 "PRPC003SAAN-RC" H 0   0   50  0001 C CNN "Mfr PN"
F 7 "1" H 0   0   50  0001 C CNN "Qty Per Unit"
F 8 "y" H 0   0   50  0001 C CNN "Subs OK?"
F 9 "S1011EC-03-ND" H 0   0   50  0001 C CNN "Vendor 1 PN"
F 10 "https://www.digikey.com/products/en?keywords=PRPC003SAAN-RC" H 0   0   50  0001 C CNN "Vendor 1 URL"
	1    2050 6650
	1    0    0    1   
$EndComp
$Comp
L power:GND #PWR081
U 1 1 51047C7E
P 1550 6850
AR Path="/51047C7E" Ref="#PWR081"  Part="1" 
AR Path="/5176EFAC/51047C7E" Ref="#PWR082"  Part="1" 
F 0 "#PWR082" H 1550 6850 30  0001 C CNN
F 1 "GND" H 1550 6780 30  0001 C CNN
F 2 "" H 1550 6850 60  0001 C CNN
F 3 "" H 1550 6850 60  0001 C CNN
	1    1550 6850
	1    0    0    -1  
$EndComp
$Comp
L power:+5V #PWR083
U 1 1 51047C7D
P 1550 6450
F 0 "#PWR083" H 1550 6300 50  0001 C CNN
F 1 "+5V" H 1550 6590 50  0000 C CNN
F 2 "" H 1550 6450 50  0000 C CNN
F 3 "" H 1550 6450 50  0000 C CNN
	1    1550 6450
	1    0    0    -1  
$EndComp
Text GLabel 1350 6550 0    60   Input ~ 0
SERVO4
Text GLabel 1350 5800 0    60   Input ~ 0
SERVO3
$Comp
L power:+5V #PWR084
U 1 1 51047C7B
P 1550 5700
F 0 "#PWR084" H 1550 5550 50  0001 C CNN
F 1 "+5V" H 1550 5840 50  0000 C CNN
F 2 "" H 1550 5700 50  0000 C CNN
F 3 "" H 1550 5700 50  0000 C CNN
	1    1550 5700
	1    0    0    -1  
$EndComp
$Comp
L power:GND #PWR084
U 1 1 51047C7A
P 1550 6100
AR Path="/51047C7A" Ref="#PWR084"  Part="1" 
AR Path="/5176EFAC/51047C7A" Ref="#PWR085"  Part="1" 
F 0 "#PWR085" H 1550 6100 30  0001 C CNN
F 1 "GND" H 1550 6030 30  0001 C CNN
F 2 "" H 1550 6100 60  0001 C CNN
F 3 "" H 1550 6100 60  0001 C CNN
	1    1550 6100
	1    0    0    -1  
$EndComp
$Comp
L RAMPS-FD-rescue:CONN_3 K203
U 1 1 51047C79
P 2050 5900
F 0 "K203" V 2000 5900 50  0000 C CNN
F 1 "S3" V 2100 5900 40  0000 C CNN
F 2 "pin_array:PIN_ARRAY_3X1" H 2050 5900 60  0001 C CNN
F 3 "https://media.digikey.com/PDF/Data%20Sheets/Sullins%20PDFs/xRxCzzzSxxN-RC_ST_11635-B.pdf" H 2050 5900 60  0001 C CNN
F 4 "CONN HEADER .100\" SNGL STR 3POS" H 0   0   50  0001 C CNN "Description"
F 5 "Sullins Connector Solutions" H 0   0   50  0001 C CNN "Manufacturer"
F 6 "PRPC003SAAN-RC" H 0   0   50  0001 C CNN "Mfr PN"
F 7 "1" H 0   0   50  0001 C CNN "Qty Per Unit"
F 8 "y" H 0   0   50  0001 C CNN "Subs OK?"
F 9 "S1011EC-03-ND" H 0   0   50  0001 C CNN "Vendor 1 PN"
F 10 "https://www.digikey.com/products/en?keywords=PRPC003SAAN-RC" H 0   0   50  0001 C CNN "Vendor 1 URL"
	1    2050 5900
	1    0    0    1   
$EndComp
$Comp
L RAMPS-FD-rescue:CONN_3 K202
U 1 1 51047C78
P 2050 5250
F 0 "K202" V 2000 5250 50  0000 C CNN
F 1 "S2" V 2100 5250 40  0000 C CNN
F 2 "pin_array:PIN_ARRAY_3X1" H 2050 5250 60  0001 C CNN
F 3 "https://media.digikey.com/PDF/Data%20Sheets/Sullins%20PDFs/xRxCzzzSxxN-RC_ST_11635-B.pdf" H 2050 5250 60  0001 C CNN
F 4 "CONN HEADER .100\" SNGL STR 3POS" H 0   0   50  0001 C CNN "Description"
F 5 "Sullins Connector Solutions" H 0   0   50  0001 C CNN "Manufacturer"
F 6 "PRPC003SAAN-RC" H 0   0   50  0001 C CNN "Mfr PN"
F 7 "1" H 0   0   50  0001 C CNN "Qty Per Unit"
F 8 "y" H 0   0   50  0001 C CNN "Subs OK?"
F 9 "S1011EC-03-ND" H 0   0   50  0001 C CNN "Vendor 1 PN"
F 10 "https://www.digikey.com/products/en?keywords=PRPC003SAAN-RC" H 0   0   50  0001 C CNN "Vendor 1 URL"
	1    2050 5250
	1    0    0    1   
$EndComp
$Comp
L power:GND #PWR085
U 1 1 51047C77
P 1550 5450
AR Path="/51047C77" Ref="#PWR085"  Part="1" 
AR Path="/5176EFAC/51047C77" Ref="#PWR086"  Part="1" 
F 0 "#PWR086" H 1550 5450 30  0001 C CNN
F 1 "GND" H 1550 5380 30  0001 C CNN
F 2 "" H 1550 5450 60  0001 C CNN
F 3 "" H 1550 5450 60  0001 C CNN
	1    1550 5450
	1    0    0    -1  
$EndComp
$Comp
L power:+5V #PWR087
U 1 1 51047C76
P 1550 5050
F 0 "#PWR087" H 1550 4900 50  0001 C CNN
F 1 "+5V" H 1550 5190 50  0000 C CNN
F 2 "" H 1550 5050 50  0000 C CNN
F 3 "" H 1550 5050 50  0000 C CNN
	1    1550 5050
	1    0    0    -1  
$EndComp
Text GLabel 1350 5150 0    60   Input ~ 0
SERVO2
Text GLabel 1350 4400 0    60   Input ~ 0
SERVO1
$Comp
L power:+5V #PWR088
U 1 1 51047C09
P 1550 4300
F 0 "#PWR088" H 1550 4150 50  0001 C CNN
F 1 "+5V" H 1550 4440 50  0000 C CNN
F 2 "" H 1550 4300 50  0000 C CNN
F 3 "" H 1550 4300 50  0000 C CNN
	1    1550 4300
	1    0    0    -1  
$EndComp
$Comp
L power:GND #PWR088
U 1 1 51047C01
P 1550 4700
AR Path="/51047C01" Ref="#PWR088"  Part="1" 
AR Path="/5176EFAC/51047C01" Ref="#PWR089"  Part="1" 
F 0 "#PWR089" H 1550 4700 30  0001 C CNN
F 1 "GND" H 1550 4630 30  0001 C CNN
F 2 "" H 1550 4700 60  0001 C CNN
F 3 "" H 1550 4700 60  0001 C CNN
	1    1550 4700
	1    0    0    -1  
$EndComp
$Comp
L RAMPS-FD-rescue:CONN_3 K201
U 1 1 51047BDF
P 2050 4500
F 0 "K201" V 2000 4500 50  0000 C CNN
F 1 "S1" V 2100 4500 40  0000 C CNN
F 2 "pin_array:PIN_ARRAY_3X1" H 2050 4500 60  0001 C CNN
F 3 "https://media.digikey.com/PDF/Data%20Sheets/Sullins%20PDFs/xRxCzzzSxxN-RC_ST_11635-B.pdf" H 2050 4500 60  0001 C CNN
F 4 "CONN HEADER .100\" SNGL STR 3POS" H 0   0   50  0001 C CNN "Description"
F 5 "Sullins Connector Solutions" H 0   0   50  0001 C CNN "Manufacturer"
F 6 "PRPC003SAAN-RC" H 0   0   50  0001 C CNN "Mfr PN"
F 7 "1" H 0   0   50  0001 C CNN "Qty Per Unit"
F 8 "y" H 0   0   50  0001 C CNN "Subs OK?"
F 9 "S1011EC-03-ND" H 0   0   50  0001 C CNN "Vendor 1 PN"
F 10 "https://www.digikey.com/products/en?keywords=PRPC003SAAN-RC" H 0   0   50  0001 C CNN "Vendor 1 URL"
	1    2050 4500
	1    0    0    1   
$EndComp
Text Notes 4850 1250 0    60   ~ 0
I2C
Text GLabel 4250 2500 0    60   Input ~ 0
SCL
Text GLabel 4250 2400 0    60   Input ~ 0
SDA
$Comp
L power:GND #PWR089
U 1 1 51047413
P 5250 2600
AR Path="/51047413" Ref="#PWR089"  Part="1" 
AR Path="/5176EFAC/51047413" Ref="#PWR090"  Part="1" 
F 0 "#PWR090" H 5250 2600 30  0001 C CNN
F 1 "GND" H 5250 2530 30  0001 C CNN
F 2 "" H 5250 2600 60  0001 C CNN
F 3 "" H 5250 2600 60  0001 C CNN
	1    5250 2600
	1    0    0    -1  
$EndComp
$Comp
L Device:R R211
U 1 1 510473D0
P 4450 2000
AR Path="/510473D0" Ref="R211"  Part="1" 
AR Path="/5176EFAC/510473D0" Ref="R211"  Part="1" 
F 0 "R211" V 4530 2000 50  0000 C CNN
F 1 "NF" V 4450 2000 50  0000 C CNN
F 2 "Resistors_SMD:R_0603" H 4450 2000 60  0001 C CNN
F 3 "" H 4450 2000 60  0001 C CNN
	1    4450 2000
	1    0    0    -1  
$EndComp
$Comp
L Device:R R212
U 1 1 510473CD
P 4800 2000
AR Path="/510473CD" Ref="R212"  Part="1" 
AR Path="/5176EFAC/510473CD" Ref="R212"  Part="1" 
F 0 "R212" V 4880 2000 50  0000 C CNN
F 1 "NF" V 4800 2000 50  0000 C CNN
F 2 "Resistors_SMD:R_0603" H 4800 2000 60  0001 C CNN
F 3 "" H 4800 2000 60  0001 C CNN
	1    4800 2000
	1    0    0    -1  
$EndComp
$Comp
L RAMPS-FD-rescue:CONN_4 P211
U 1 1 51047175
P 5800 2350
F 0 "P211" V 5750 2350 50  0000 C CNN
F 1 "I2C-0" V 5850 2350 50  0000 C CNN
F 2 "pin_array:PIN_ARRAY_4x1" H 5800 2350 60  0001 C CNN
F 3 "https://media.digikey.com/PDF/Data%20Sheets/Sullins%20PDFs/xRxCzzzSxxN-RC_ST_11635-B.pdf" H 5800 2350 60  0001 C CNN
F 4 "CONN HEADER .100\" SNGL STR 4POS" H 0   0   50  0001 C CNN "Description"
F 5 "Sullins Connector Solutions" H 0   0   50  0001 C CNN "Manufacturer"
F 6 "PRPC004SAAN-RC" H 0   0   50  0001 C CNN "Mfr PN"
F 7 "1" H 0   0   50  0001 C CNN "Qty Per Unit"
F 8 "y" H 0   0   50  0001 C CNN "Subs OK?"
F 9 "S1011EC-04-ND" H 0   0   50  0001 C CNN "Vendor 1 PN"
F 10 "https://www.digikey.com/products/en?keywords=S1011EC-04-ND" H 0   0   50  0001 C CNN "Vendor 1 URL"
	1    5800 2350
	1    0    0    -1  
$EndComp
Text Notes 4100 900  0    79   ~ 16
NB: On Arduino Due: IOs on this page are not 5V tolerant. Do not exceed 3.3V.
Text Notes 550  1600 0    50   ~ 0
Note: this serial port is shared with\nUSB programming port
Text GLabel 9400 3400 2    50   Input ~ 0
SPI_CS1
Wire Wire Line
	9450 3600 9250 3600
Wire Wire Line
	7550 3500 8450 3500
Wire Notes Line
	8250 5775 8250 6275
Text GLabel 8950 4875 0    50   Output ~ 0
UART2_RX_LV
Text GLabel 8950 4775 0    50   Input ~ 0
UART2_TX_LV
Text GLabel 8100 2250 0    50   Input ~ 0
UART3_TX_LV
Text GLabel 9400 2250 2    50   Input ~ 0
UART3_RX_LV
Text Notes 7200 6025 0    50   ~ 0
These are shared with E1 \nand E2 stepper signals
Text Notes 8500 4050 0    50   ~ 0
Mega: same signals as \nMISO, MOSI & SCK
Wire Wire Line
	9400 3200 9250 3200
Text GLabel 8950 6275 0    50   BiDi ~ 0
D32
Wire Notes Line
	9400 5725 8050 5725
$Comp
L power:+5V #PWR091
U 1 1 52421C84
P 7950 3100
F 0 "#PWR091" H 7950 2950 50  0001 C CNN
F 1 "+5V" H 7950 3240 50  0000 C CNN
F 2 "" H 7950 3100 50  0000 C CNN
F 3 "" H 7950 3100 50  0000 C CNN
	1    7950 3100
	1    0    0    -1  
$EndComp
Text Notes 6650 3200 0    60   ~ 12
NB This pin is always 5V
Wire Notes Line
	8300 4775 8250 4775
Wire Notes Line
	8250 4775 8250 5675
Wire Notes Line
	8250 5675 8300 5675
Text Notes 7400 5175 0    60   ~ 0
These are free \nfor LCD panel etc
Wire Notes Line
	8300 5775 8250 5775
Wire Notes Line
	8250 6275 8300 6275
NoConn ~ 9250 3500
$Comp
L RAMPS-FD-rescue:CONN_6X2 P215
U 1 1 52475600
P 8850 3450
F 0 "P215" H 8850 3800 60  0000 C CNN
F 1 "AUX-3" V 8850 3450 60  0000 C CNN
F 2 "rmc:PIN_ARRAY_6x2_RMC" H 8850 3450 60  0001 C CNN
F 3 "https://s3.amazonaws.com/catalogspreads-pdf/PAGE110-111%20.100%20MALE%20HDR%20ST.pdf" H 8850 3450 60  0001 C CNN
F 4 "CONN HEADER .100\" DUAL STR 12POS" H 0   0   50  0001 C CNN "Description"
F 5 "Sullins Connector Solutions" H 0   0   50  0001 C CNN "Manufacturer"
F 6 "PRPC006DAAN-RC" H 0   0   50  0001 C CNN "Mfr PN"
F 7 "1" H 0   0   50  0001 C CNN "Qty Per Unit"
F 8 "y" H 0   0   50  0001 C CNN "Subs OK?"
F 9 "PRPC006DAAN-RC" H 0   0   50  0001 C CNN "Vendor 1 PN"
F 10 "https://www.digikey.com/products/en?keywords=PRPC006DAAN-RC" H 0   0   50  0001 C CNN "Vendor 1 URL"
	1    8850 3450
	1    0    0    -1  
$EndComp
$Comp
L RMC:+V_LOGIC #PWR092
U 1 1 52475621
P 10250 3650
F 0 "#PWR092" H 10250 3620 30  0001 C CNN
F 1 "+V_LOGIC" H 10250 3750 30  0000 C CNN
F 2 "" H 10250 3650 60  0001 C CNN
F 3 "" H 10250 3650 60  0001 C CNN
	1    10250 3650
	1    0    0    -1  
$EndComp
Wire Wire Line
	9250 3700 10250 3700
Wire Wire Line
	10250 3700 10250 3650
Wire Notes Line
	7800 3600 7750 3600
Wire Notes Line
	7750 3600 7750 4050
Wire Notes Line
	7800 3700 7750 3700
Wire Notes Line
	7750 4050 8450 4050
Wire Notes Line
	10000 3600 10050 3600
Wire Notes Line
	10050 3600 10050 4050
Wire Notes Line
	10050 4050 9450 4050
Wire Notes Line
	9450 3500 10050 3500
Wire Notes Line
	10050 3500 10050 3250
Wire Notes Line
	10050 3250 10450 3250
Text Notes 10100 3150 0    60   ~ 0
Note: Some addon boards \nconnect this pin to GND.
$Comp
L RAMPS-FD-rescue:24C512 U601
U 1 1 52B23647
P 4400 6250
F 0 "U601" H 4550 6600 60  0000 C CNN
F 1 "24C512" H 4600 5900 60  0000 C CNN
F 2 "libcms:SO8E" H 4400 6250 60  0001 C CNN
F 3 "http://www.onsemi.com/pub/Collateral/CAT24C512-D.PDF" H 4400 6250 60  0001 C CNN
F 4 "IC EEPROM 512K I2C 1MHZ 8SOIC" H 0   0   50  0001 C CNN "Description"
F 5 "8-SOIC" H 0   0   50  0001 C CNN "JEDEC Pkg"
F 6 "ON Semiconductor" H 0   0   50  0001 C CNN "Manufacturer"
F 7 "CAT24C512WI-GT3" H 0   0   50  0001 C CNN "Mfr PN"
F 8 "y" H 0   0   50  0001 C CNN "Subs OK?"
F 9 "CAT24C512WI-GT3OSCT-ND" H 0   0   50  0001 C CNN "Vendor 1 PN"
F 10 "https://www.digikey.com/product-detail/en/on-semiconductor/CAT24C512WI-GT3/CAT24C512WI-GT3OSCT-ND/2699493" H 0   0   50  0001 C CNN "Vendor 1 URL"
F 11 "1" H 0   0   50  0001 C CNN "Qty Per Unit"
	1    4400 6250
	1    0    0    -1  
$EndComp
$Comp
L power:GND #PWR092
U 1 1 52B23654
P 4400 6900
AR Path="/52B23654" Ref="#PWR092"  Part="1" 
AR Path="/5176EFAC/52B23654" Ref="#PWR093"  Part="1" 
F 0 "#PWR093" H 4400 6900 30  0001 C CNN
F 1 "GND" H 4400 6830 30  0001 C CNN
F 2 "" H 4400 6900 60  0001 C CNN
F 3 "" H 4400 6900 60  0001 C CNN
	1    4400 6900
	1    0    0    -1  
$EndComp
Wire Wire Line
	4400 6750 4400 6800
Wire Wire Line
	3650 6250 3700 6250
Wire Wire Line
	3650 6050 3650 6150
Wire Wire Line
	3650 6800 4400 6800
Connection ~ 4400 6800
Wire Wire Line
	3650 6150 3700 6150
Connection ~ 3650 6250
Wire Wire Line
	3700 6050 3650 6050
Connection ~ 3650 6150
$Comp
L RMC:+V_LOGIC #PWR094
U 1 1 52B2384C
P 4400 5600
F 0 "#PWR094" H 4400 5570 30  0001 C CNN
F 1 "+V_LOGIC" H 4400 5700 30  0000 C CNN
F 2 "" H 4400 5600 60  0001 C CNN
F 3 "" H 4400 5600 60  0001 C CNN
	1    4400 5600
	1    0    0    -1  
$EndComp
Wire Wire Line
	4400 5750 4400 5600
Wire Wire Line
	5100 6150 5200 6150
Wire Wire Line
	5200 6150 5200 6800
Text GLabel 5400 6350 2    50   Input ~ 0
SCL
Text GLabel 5400 6450 2    50   Input ~ 0
SDA
Wire Wire Line
	5100 6450 5400 6450
Wire Wire Line
	5100 6350 5400 6350
Text Notes 4200 7350 0    60   ~ 0
EEPROM
$Comp
L Device:C C601
U 1 1 52B22339
P 6050 6250
AR Path="/52B22339" Ref="C601"  Part="1" 
AR Path="/5176EFAC/52B22339" Ref="C601"  Part="1" 
F 0 "C601" H 6050 6350 40  0000 L CNN
F 1 "100n" H 6056 6165 40  0000 L CNN
F 2 "Capacitors_SMD:C_0603" H 6088 6100 30  0001 C CNN
F 3 "http://www.samsungsem.com/kr/support/product-search/mlcc/CL10F104ZA8NNNC.jsp" H 6050 6250 60  0001 C CNN
F 4 "CAP CER 0.1UF 25V Y5V 0603" H 0   0   50  0001 C CNN "Description"
F 5 "Samsung Electro-Mechanics" H 0   0   50  0001 C CNN "Manufacturer"
F 6 "CL10F104ZA8NNNC" H 0   0   50  0001 C CNN "Mfr PN"
F 7 "1" H 0   0   50  0001 C CNN "Qty Per Unit"
F 8 "y" H 0   0   50  0001 C CNN "Subs OK?"
F 9 "1276-1011-1-ND" H 0   0   50  0001 C CNN "Vendor 1 PN"
F 10 "https://www.digikey.com/products/en/capacitors/ceramic-capacitors/60?k=&pkeyword=&pv7=2&FV=380014%2C400005%2C440003%2C1f140000%2Cmu0.1%C2%B5F%7C2049%2Cffe0003c&quantity=0&ColumnSort=0&page=1&stock=1&pageSize=25" H 0   0   50  0001 C CNN "Vendor 1 URL"
F 11 "0603" H 0   0   50  0001 C CNN "JEDEC Pkg"
	1    6050 6250
	1    0    0    -1  
$EndComp
$Comp
L power:GND #PWR094
U 1 1 52B22346
P 6050 6600
AR Path="/52B22346" Ref="#PWR094"  Part="1" 
AR Path="/5176EFAC/52B22346" Ref="#PWR095"  Part="1" 
F 0 "#PWR095" H 6050 6600 30  0001 C CNN
F 1 "GND" H 6050 6530 30  0001 C CNN
F 2 "" H 6050 6600 60  0001 C CNN
F 3 "" H 6050 6600 60  0001 C CNN
	1    6050 6600
	1    0    0    -1  
$EndComp
Wire Wire Line
	6050 6400 6050 6600
$Comp
L RMC:+V_LOGIC #PWR096
U 1 1 52B2234D
P 6050 5900
F 0 "#PWR096" H 6050 5870 30  0001 C CNN
F 1 "+V_LOGIC" H 6050 6000 30  0000 C CNN
F 2 "" H 6050 5900 60  0001 C CNN
F 3 "" H 6050 5900 60  0001 C CNN
	1    6050 5900
	1    0    0    -1  
$EndComp
Wire Wire Line
	6050 6100 6050 5900
Text Notes 2900 5800 0    60   Italic 0
Might want to \nallow other addresses
Wire Notes Line
	9250 3550 8450 3550
Wire Wire Line
	4800 2400 5450 2400
Wire Wire Line
	4450 2500 5450 2500
Wire Wire Line
	4800 1650 5250 1650
Wire Wire Line
	4450 1650 4450 1850
Wire Wire Line
	4450 3850 4450 4050
Wire Wire Line
	4800 3850 4450 3850
Wire Wire Line
	4450 4700 5450 4700
Wire Wire Line
	4800 4600 5450 4600
Wire Wire Line
	4400 6800 4400 6900
Wire Wire Line
	4400 6800 5200 6800
Wire Wire Line
	3650 6250 3650 6800
Wire Wire Line
	3650 6150 3650 6250
$EndSCHEMATC
